<?xml version="1.0" encoding="UTF-8" standalone="no"?>
<!-- Created with Inkscape (http://www.inkscape.org/) -->

<svg
   xmlns:dc="http://purl.org/dc/elements/1.1/"
   xmlns:cc="http://creativecommons.org/ns#"
   xmlns:rdf="http://www.w3.org/1999/02/22-rdf-syntax-ns#"
   xmlns:svg="http://www.w3.org/2000/svg"
   xmlns="http://www.w3.org/2000/svg"
   xmlns:sodipodi="http://sodipodi.sourceforge.net/DTD/sodipodi-0.dtd"
   xmlns:inkscape="http://www.inkscape.org/namespaces/inkscape"
   width="51.200001mm"
   height="51.200001mm"
   viewBox="0 0 51.200001 51.200001"
   version="1.1"
   id="svg3665"
   inkscape:version="0.92.2 2405546, 2018-03-11"
   sodipodi:docname="timeqx-icon-with-time.svg">
  <defs
     id="defs3659">
    <filter
       color-interpolation-filters="sRGB"
       id="filter15393">
      <feGaussianBlur
         stdDeviation="30.57388"
         id="feGaussianBlur15395" />
    </filter>
    <inkscape:path-effect
       is_visible="true"
       id="path-effect4260"
       effect="spiro" />
    <inkscape:path-effect
       fuse_tolerance="0"
       vertical_pattern="false"
       prop_units="false"
       tang_offset="0"
       normal_offset="0"
       spacing="0"
       scale_y_rel="false"
       prop_scale="1"
       copytype="single_stretched"
       pattern="m 0,-7 c 0,-2.76 2.24,-5 5,-5 2.76,0 5,2.24 5,5 0,2.76 -2.24,5 -5,5 -2.76,0 -5,-2.24 -5,-5 z"
       is_visible="true"
       id="path-effect4262"
       effect="skeletal" />
    <inkscape:path-effect
       is_visible="true"
       id="path-effect4266"
       effect="spiro" />
    <inkscape:path-effect
       fuse_tolerance="0"
       vertical_pattern="false"
       prop_units="false"
       tang_offset="0"
       normal_offset="0"
       spacing="0"
       scale_y_rel="false"
       prop_scale="1"
       copytype="single_stretched"
       pattern="m 0,-1 c 0,-2.76 2.24,-5 5,-5 2.76,0 5,2.24 5,5 C 10,1.76 7.76,4 5,4 2.24,4 0,1.76 0,-1 Z"
       is_visible="true"
       id="path-effect4268"
       effect="skeletal" />
    <inkscape:path-effect
       is_visible="true"
       id="path-effect4306"
       effect="spiro" />
    <inkscape:path-effect
       fuse_tolerance="0"
       vertical_pattern="false"
       prop_units="false"
       tang_offset="0"
       normal_offset="0"
       spacing="0"
       scale_y_rel="false"
       prop_scale="1"
       copytype="single_stretched"
       pattern="m 8.1178917,270.06922 c 0,-2.76 2.2400003,-5 5.0000003,-5 2.76,0 5,2.24 5,5 0,2.76 -2.24,5 -5,5 -2.76,0 -5.0000003,-2.24 -5.0000003,-5 z"
       is_visible="true"
       id="path-effect4308"
       effect="skeletal" />
    <filter
       inkscape:collect="always"
       style="color-interpolation-filters:sRGB"
       id="filter4970"
       x="-0.011084348"
       width="1.0221687"
       y="-0.034685715"
       height="1.0693714">
      <feGaussianBlur
         inkscape:collect="always"
         stdDeviation="0.20075261"
         id="feGaussianBlur4972" />
    </filter>
  </defs>
  <sodipodi:namedview
     id="base"
     pagecolor="#ffffff"
     bordercolor="#666666"
     borderopacity="1.0"
     inkscape:pageopacity="0.0"
     inkscape:pageshadow="2"
     inkscape:zoom="2.8"
     inkscape:cx="161.87859"
     inkscape:cy="-15.984672"
     inkscape:document-units="mm"
     inkscape:current-layer="layer1"
     showgrid="false"
     inkscape:window-width="2560"
     inkscape:window-height="1535"
     inkscape:window-x="1920"
     inkscape:window-y="0"
     inkscape:window-maximized="1" />
  <metadata
     id="metadata3662">
    <rdf:RDF>
      <cc:Work
         rdf:about="">
        <dc:format>image/svg+xml</dc:format>
        <dc:type
           rdf:resource="http://purl.org/dc/dcmitype/StillImage" />
        <dc:title></dc:title>
      </cc:Work>
    </rdf:RDF>
  </metadata>
  <g
     inkscape:label="Layer 1"
     inkscape:groupmode="layer"
     id="layer1"
     transform="translate(0,-245.8)">
    <rect
       style="opacity:0.98999999;fill:#0bd3ff;fill-opacity:1;fill-rule:evenodd;stroke:#000000;stroke-width:0.2;stroke-linecap:round;stroke-linejoin:round;stroke-miterlimit:4;stroke-dasharray:none;stroke-dashoffset:0;stroke-opacity:1;filter:url(#filter4970)"
       id="rect4536"
       width="43.467262"
       height="13.890625"
       x="4.6302085"
       y="281.314"
       ry="2.9293156" />
    <g
       transform="matrix(0.25914809,0.14778901,-0.14778901,0.25914809,-16.501927,106.67924)"
       inkscape:label="Calque 1"
       id="layer1-7"
       style="fill:#0bd3ff;fill-opacity:1">
      <path
         inkscape:export-xdpi="84.154686"
         inkscape:connector-curvature="0"
         inkscape:export-filename="/Users/lmproulx/Desktop/isotype/text3279.png"
         inkscape:export-ydpi="84.154686"
         d="m 426.29,397.51 c 0.36807,21.369 -19.814,40.241 -40.715,38.6 -20.073,-0.24897 -38.556,-18.656 -37.889,-39.275 0.30331,-20.28 18.538,-38.446 38.605,-37.946 18.894,-0.67076 37.643,14.354 39.765,33.73 0.17008,1.6244 0.2812,3.2573 0.23295,4.8917 z"
         style="fill:#0bd3ff;fill-opacity:1;stroke:#000000;stroke-width:2.11330009;stroke-linecap:round;stroke-linejoin:round;stroke-dashoffset:2"
         id="path3584" />
      <path
         inkscape:export-xdpi="84.154686"
         inkscape:connector-curvature="0"
         inkscape:export-filename="/Users/lmproulx/Desktop/isotype/text3279.png"
         inkscape:export-ydpi="84.154686"
         d="m 417.99,397.28 c 0.28682,16.649 -15.44,31.353 -31.726,30.074 -15.642,-0.19398 -30.044,-14.536 -29.524,-30.601 0.23631,-15.801 14.445,-29.955 30.083,-29.565 14.723,-0.52262 29.333,11.184 30.987,26.28 0.1325,1.2656 0.21911,2.5378 0.18151,3.8113 z"
         style="fill:#0bd3ff;fill-opacity:1;stroke:#000000;stroke-width:1.26800001;stroke-linecap:round;stroke-linejoin:round;stroke-dashoffset:2"
         id="path3586" />
      <path
         inkscape:export-xdpi="84.154686"
         inkscape:connector-curvature="0"
         inkscape:export-filename="/Users/lmproulx/Desktop/isotype/text3279.png"
         inkscape:export-ydpi="84.154686"
         d="m 397.64,380.75 c 0.10111,5.7705 -5.4435,10.867 -11.185,10.424 -5.5146,-0.0672 -10.592,-5.038 -10.409,-10.606 0.0833,-5.4766 5.0928,-10.382 10.606,-10.247 5.1906,-0.18116 10.341,3.8763 10.924,9.1086 0.0467,0.43868 0.0773,0.87959 0.064,1.321 z"
         style="fill:#0bd3ff;fill-opacity:1;stroke:#000000;stroke-width:1.26800001;stroke-linecap:round;stroke-linejoin:round;stroke-dashoffset:2"
         id="path3590" />
      <path
         inkscape:export-xdpi="84.154686"
         inkscape:connector-curvature="0"
         inkscape:export-filename="/Users/lmproulx/Desktop/isotype/text3279.png"
         sodipodi:nodetypes="ccccccc"
         inkscape:export-ydpi="84.154686"
         d="m 364.34,365.57 -4.9707,-6.6391 0.33139,-3.6515 -8.9472,7.303 2.9824,0.33196 5.6076,7.0741 4.9964,-4.4184 z"
         style="fill:#0bd3ff;fill-opacity:1;stroke:#000000;stroke-width:1.69060004;stroke-linecap:round;stroke-linejoin:round"
         id="path3596" />
      <ellipse
         inkscape:export-xdpi="84.154686"
         transform="matrix(2.1133,0,0,2.1133,523.41,-470.84)"
         inkscape:export-filename="/Users/lmproulx/Desktop/isotype/text3279.png"
         inkscape:export-ydpi="84.154686"
         style="fill:#0bd3ff;fill-opacity:1;stroke:#000000;stroke-width:0.66861999;stroke-linecap:round;stroke-linejoin:round"
         id="path3606"
         cx="-65.089287"
         cy="384.45163"
         rx="7.2321429"
         ry="6.7857141" />
      <ellipse
         inkscape:export-xdpi="84.154686"
         transform="matrix(1.649,0,0,1.6477,493.38,-292.03)"
         inkscape:export-filename="/Users/lmproulx/Desktop/isotype/text3279.png"
         inkscape:export-ydpi="84.154686"
         style="fill:#0bd3ff;fill-opacity:1;stroke:#000000;stroke-width:0.76924002;stroke-linecap:round;stroke-linejoin:round"
         id="path3608"
         cx="-65.089287"
         cy="384.45163"
         rx="7.2321429"
         ry="6.7857141" />
      <path
         inkscape:export-xdpi="84.154686"
         inkscape:connector-curvature="0"
         inkscape:export-filename="/Users/lmproulx/Desktop/isotype/text3279.png"
         sodipodi:nodetypes="ccccc"
         inkscape:export-ydpi="84.154686"
         d="m 381.7,358.62 0.3774,-11.51 7.5475,-0.37739 1.1321,11.887 H 381.7 Z"
         style="fill:#0bd3ff;fill-opacity:1;stroke:#000000;stroke-width:1.26800001;stroke-linecap:round;stroke-linejoin:round"
         id="path3602" />
      <path
         inkscape:export-xdpi="84.154686"
         inkscape:connector-curvature="0"
         inkscape:export-filename="/Users/lmproulx/Desktop/isotype/text3279.png"
         sodipodi:nodetypes="ccccc"
         inkscape:export-ydpi="84.154686"
         d="m 379.81,340.69 -0.37737,8.3022 h 12.831 v -8.6796 l -12.453,0.37737 z"
         style="fill:#0bd3ff;fill-opacity:1;stroke:#000000;stroke-width:1.26800001;stroke-linecap:round;stroke-linejoin:round"
         id="path3604" />
      <path
         inkscape:export-xdpi="84.154686"
         inkscape:connector-curvature="0"
         inkscape:export-filename="/Users/lmproulx/Desktop/isotype/text3279.png"
         sodipodi:nodetypes="cccccc"
         inkscape:export-ydpi="84.154686"
         d="m 411.68,382.95 -24.56,14.769 -6.3598,6.1159 2.0943,2.9629 8.7196,-4.444 c 7.0509,-6.0882 14.324,-13.739 20.106,-19.404 z"
         style="fill:#0bd3ff;fill-opacity:1;stroke:#000000;stroke-width:1.26800001;stroke-linecap:round;stroke-linejoin:round"
         id="path3612" />
      <circle
         inkscape:export-xdpi="84.154686"
         transform="matrix(3.0319,0,0,3.0319,580.22,-851.67)"
         inkscape:export-filename="/Users/lmproulx/Desktop/isotype/text3279.png"
         inkscape:export-ydpi="84.154686"
         style="fill:#0bd3ff;fill-opacity:1;stroke:#000000;stroke-width:0.46007001;stroke-linecap:round;stroke-linejoin:round"
         id="path3610"
         cx="-63.51334"
         cy="413.14325"
         r="1.3889598" />
    </g>
    <text
       xml:space="preserve"
       style="font-style:normal;font-weight:normal;font-size:10.58333302px;line-height:125%;font-family:sans-serif;text-align:start;letter-spacing:0px;word-spacing:0px;writing-mode:lr-tb;text-anchor:start;fill:#000000;fill-opacity:1;stroke:none;stroke-width:0.26458332px;stroke-linecap:butt;stroke-linejoin:miter;stroke-opacity:1"
       x="11.103791"
       y="292.11179"
       id="text4515"><tspan
         sodipodi:role="line"
         id="tspan4513"
         x="11.103791"
         y="292.11179"
         style="stroke-width:0.26458332px">00:00</tspan></text>
  </g>
</svg>
